{
	"tag" : "div",
	"category" : "button",
	"attr" : {
		"class" : "box"
	},
	"content" : [
		{
			"tag" : "button",
			"category" : "button",
			"attr" : {
				"class" : "btn btn-success box"
			},
			"content" : "Button"
		}
	]
}